tb_bldc_pwm.vcd
$date
	Thu Jun 18 16:16:05 2026
$end
$version
	Icarus Verilog
$end
$timescale
	1ps
$end
$scope module tb_bldc_pwm $end
$var wire 1 ! icb_rsp_err $end
$var wire 6 " pwm_out [5:0] $end
$var wire 1 # irq $end
$var wire 1 $ icb_rsp_valid $end
$var wire 32 % icb_rsp_rdata [31:0] $end
$var wire 1 & icb_cmd_ready $end
$var parameter 12 ' ARR $end
$var parameter 32 ( AW $end
$var parameter 12 ) CNT $end
$var parameter 12 * CTRL $end
$var parameter 32 + CW $end
$var parameter 12 , DTG $end
$var parameter 32 - DW $end
$var parameter 12 . ID $end
$var parameter 12 / OCR0 $end
$var parameter 12 0 OCR2 $end
$var parameter 12 1 OCR4 $end
$var parameter 12 2 PSC $end
$var parameter 12 3 SAMP $end
$var parameter 12 4 SFREQ $end
$var parameter 12 5 STATUS $end
$var reg 1 6 brk_in $end
$var reg 1 7 clk $end
$var reg 12 8 icb_cmd_addr [11:0] $end
$var reg 1 9 icb_cmd_read $end
$var reg 1 : icb_cmd_valid $end
$var reg 32 ; icb_cmd_wdata [31:0] $end
$var reg 4 < icb_cmd_wmask [3:0] $end
$var reg 1 = icb_rsp_ready $end
$var reg 32 > rdbk [31:0] $end
$var reg 1 ? rst_n $end
$var integer 32 @ shoot [31:0] $end
$scope module dut $end
$var wire 1 6 brk_in $end
$var wire 1 A brk_lvl $end
$var wire 1 B brk_rise $end
$var wire 1 C brk_sync $end
$var wire 1 7 clk $end
$var wire 1 D clr_bif $end
$var wire 1 E clr_uif $end
$var wire 1 F cmd_hsk $end
$var wire 12 G icb_cmd_addr [11:0] $end
$var wire 1 9 icb_cmd_read $end
$var wire 1 & icb_cmd_ready $end
$var wire 1 : icb_cmd_valid $end
$var wire 32 H icb_cmd_wdata [31:0] $end
$var wire 4 I icb_cmd_wmask [3:0] $end
$var wire 1 ! icb_rsp_err $end
$var wire 1 = icb_rsp_ready $end
$var wire 1 # irq $end
$var wire 1 J is_rd $end
$var wire 1 K is_wr $end
$var wire 32 L ocr0f [31:0] $end
$var wire 32 M ocr1f [31:0] $end
$var wire 32 N ocr2f [31:0] $end
$var wire 32 O ocr3f [31:0] $end
$var wire 32 P ocr4f [31:0] $end
$var wire 32 Q ocr5f [31:0] $end
$var wire 1 R rsp_hsk $end
$var wire 1 ? rst_n $end
$var wire 6 S widx [5:0] $end
$var wire 1 T uie $end
$var wire 1 U uev $end
$var wire 1 V svpwm $end
$var wire 6 W pwm_out [5:0] $end
$var wire 1 X preload $end
$var wire 16 Y ocr4_mux [15:0] $end
$var wire 16 Z ocr2_mux [15:0] $end
$var wire 16 [ ocr0_mux [15:0] $end
$var wire 1 \ moe $end
$var wire 16 ] inj_w [15:0] $end
$var wire 16 ^ inj_v [15:0] $end
$var wire 16 _ inj_u [15:0] $end
$var wire 1 ` indep $end
$var wire 1 a en $end
$var wire 16 b cnt_val [15:0] $end
$var wire 1 c cms $end
$var wire 1 d brk_sw $end
$var wire 1 e brk_pol $end
$var wire 1 f bie $end
$var wire 1 g auto_inj $end
$var parameter 32 h AW $end
$var parameter 6 i A_ARR $end
$var parameter 6 j A_CNT $end
$var parameter 6 k A_CTRL $end
$var parameter 6 l A_DTG $end
$var parameter 6 m A_ID $end
$var parameter 6 n A_OCR0 $end
$var parameter 6 o A_OCR1 $end
$var parameter 6 p A_OCR2 $end
$var parameter 6 q A_OCR3 $end
$var parameter 6 r A_OCR4 $end
$var parameter 6 s A_OCR5 $end
$var parameter 6 t A_PSC $end
$var parameter 6 u A_SAMP $end
$var parameter 6 v A_SCTRL $end
$var parameter 6 w A_SFREQ $end
$var parameter 6 x A_STATUS $end
$var parameter 32 y CW $end
$var parameter 32 z DW $end
$var parameter 32 { ID_VALUE $end
$var reg 32 | arr_r [31:0] $end
$var reg 1 } bif $end
$var reg 1 ~ brk_s1 $end
$var reg 1 !" brk_s2 $end
$var reg 1 "" brk_s3 $end
$var reg 32 #" ctrl [31:0] $end
$var reg 32 $" dtg_r [31:0] $end
$var reg 32 %" icb_rsp_rdata [31:0] $end
$var reg 1 $ icb_rsp_valid $end
$var reg 32 &" psc_r [31:0] $end
$var reg 32 '" rdata_n [31:0] $end
$var reg 32 (" samp_r [31:0] $end
$var reg 32 )" sctrl_r [31:0] $end
$var reg 32 *" sfreq_r [31:0] $end
$var reg 1 +" uif $end
$var integer 32 ," k [31:0] $end
$scope function wmsk $end
$var reg 4 -" m [3:0] $end
$var reg 32 ." nw [31:0] $end
$var reg 32 /" old [31:0] $end
$upscope $end
$scope module u_inj $end
$var wire 16 0" amp [15:0] $end
$var wire 16 1" arr [15:0] $end
$var wire 1 7 clk $end
$var wire 1 g en $end
$var wire 32 2" freq_step [31:0] $end
$var wire 32 3" ph_u [31:0] $end
$var wire 1 ? rst_n $end
$var wire 1 V svpwm_sel $end
$var wire 16 4" s_w [15:0] $end
$var wire 16 5" s_v [15:0] $end
$var wire 16 6" s_u [15:0] $end
$var wire 33 7" prod_w [32:0] $end
$var wire 33 8" prod_v [32:0] $end
$var wire 33 9" prod_u [32:0] $end
$var wire 32 :" ph_w [31:0] $end
$var wire 32 ;" ph_v [31:0] $end
$var wire 18 <" mid [17:0] $end
$var wire 1 U load $end
$var wire 8 =" idx_w [7:0] $end
$var wire 8 >" idx_v [7:0] $end
$var wire 8 ?" idx_u [7:0] $end
$var wire 18 @" calc_w [17:0] $end
$var wire 18 A" calc_v [17:0] $end
$var wire 18 B" calc_u [17:0] $end
$var wire 17 C" amp_s [16:0] $end
$var parameter 32 D" CW $end
$var parameter 32 E" LAW $end
$var parameter 32 F" OFF120 $end
$var parameter 32 G" OFF240 $end
$var parameter 32 H" PAW $end
$var parameter 32 I" SW $end
$var reg 16 J" ocr_u [15:0] $end
$var reg 16 K" ocr_v [15:0] $end
$var reg 16 L" ocr_w [15:0] $end
$var reg 32 M" phase [31:0] $end
$scope function clamp $end
$var reg 16 N" hi [15:0] $end
$var reg 18 O" val [17:0] $end
$upscope $end
$upscope $end
$scope module u_timer $end
$var wire 16 P" arr [15:0] $end
$var wire 1 C brk $end
$var wire 1 7 clk $end
$var wire 1 c cms $end
$var wire 16 Q" cnt [15:0] $end
$var wire 1 R" dir $end
$var wire 8 S" dtg_u [7:0] $end
$var wire 8 T" dtg_v [7:0] $end
$var wire 8 U" dtg_w [7:0] $end
$var wire 1 a en $end
$var wire 1 ` indep_mode $end
$var wire 1 \ moe $end
$var wire 16 V" ocr0 [15:0] $end
$var wire 16 W" ocr1 [15:0] $end
$var wire 16 X" ocr2 [15:0] $end
$var wire 16 Y" ocr3 [15:0] $end
$var wire 16 Z" ocr4 [15:0] $end
$var wire 16 [" ocr5 [15:0] $end
$var wire 1 \" out_en $end
$var wire 1 X preload_en $end
$var wire 16 ]" psc [15:0] $end
$var wire 6 ^" pwm_out [5:0] $end
$var wire 1 ? rst_n $end
$var wire 1 _" w_l $end
$var wire 1 `" w_h $end
$var wire 1 a" v_l $end
$var wire 1 b" v_h $end
$var wire 1 c" u_l $end
$var wire 1 d" u_h $end
$var wire 1 e" tick $end
$var wire 6 f" indep_out [5:0] $end
$var wire 6 g" cmpl_out [5:0] $end
$var wire 1 h" cmp5 $end
$var wire 1 i" cmp4 $end
$var wire 1 j" cmp3 $end
$var wire 1 k" cmp2 $end
$var wire 1 l" cmp1 $end
$var wire 1 m" cmp0 $end
$var parameter 32 n" CW $end
$var reg 16 o" cnt_r [15:0] $end
$var reg 1 p" dir_r $end
$var reg 16 q" psc_cnt [15:0] $end
$var reg 16 r" s0 [15:0] $end
$var reg 16 s" s1 [15:0] $end
$var reg 16 t" s2 [15:0] $end
$var reg 16 u" s3 [15:0] $end
$var reg 16 v" s4 [15:0] $end
$var reg 16 w" s5 [15:0] $end
$var reg 1 U uev $end
$scope module u_dt_u $end
$var wire 1 7 clk $end
$var wire 8 x" dt [7:0] $end
$var wire 1 y" edge_det $end
$var wire 1 \" ena $end
$var wire 1 m" ref_in $end
$var wire 1 ? rst_n $end
$var reg 8 z" dcnt [7:0] $end
$var reg 1 {" in_dt $end
$var reg 1 d" oh $end
$var reg 1 c" ol $end
$var reg 1 |" ref_d $end
$upscope $end
$scope module u_dt_v $end
$var wire 1 7 clk $end
$var wire 8 }" dt [7:0] $end
$var wire 1 ~" edge_det $end
$var wire 1 \" ena $end
$var wire 1 k" ref_in $end
$var wire 1 ? rst_n $end
$var reg 8 !# dcnt [7:0] $end
$var reg 1 "# in_dt $end
$var reg 1 b" oh $end
$var reg 1 a" ol $end
$var reg 1 ## ref_d $end
$upscope $end
$scope module u_dt_w $end
$var wire 1 7 clk $end
$var wire 8 $# dt [7:0] $end
$var wire 1 %# edge_det $end
$var wire 1 \" ena $end
$var wire 1 i" ref_in $end
$var wire 1 ? rst_n $end
$var reg 8 &# dcnt [7:0] $end
$var reg 1 '# in_dt $end
$var reg 1 `" oh $end
$var reg 1 _" ol $end
$var reg 1 (# ref_d $end
$upscope $end
$upscope $end
$upscope $end
$scope task icb_read $end
$var reg 12 )# addr [11:0] $end
$var reg 32 *# data [31:0] $end
$upscope $end
$scope task icb_write $end
$var reg 12 +# addr [11:0] $end
$var reg 32 ,# data [31:0] $end
$upscope $end
$upscope $end
$enddefinitions $end
$comment Show the parameter values. $end
$dumpall
b10000 n"
b10000 I"
b100000 H"
b10101010101010101010101010101010 G"
b1010101010101010101010101010101 F"
b1000 E"
b10000 D"
b10110001110111000000000000000001 {
b100000 z
b10000 y
b1 x
b1100 w
b1110 v
b1101 u
b10 t
b1001 s
b1000 r
b111 q
b110 p
b101 o
b100 n
b1111 m
b1010 l
b0 k
b1011 j
b11 i
b1100 h
b100 5
b110000 4
b110100 3
b1000 2
b100000 1
b11000 0
b10000 /
b111100 .
b100000 -
b101000 ,
b10000 +
b0 *
b101100 )
b1100 (
b1100 '
$end
#0
$dumpvars
bx ,#
bx +#
bx *#
bx )#
x(#
x'#
bx &#
x%#
bx $#
x##
x"#
bx !#
x~"
bx }"
x|"
x{"
bx z"
xy"
bx x"
bx w"
bx v"
bx u"
bx t"
bx s"
bx r"
bx q"
xp"
bx o"
xm"
xl"
xk"
xj"
xi"
xh"
bx g"
bx f"
xe"
xd"
xc"
xb"
xa"
x`"
x_"
bx ^"
bx ]"
x\"
bx ["
bx Z"
bx Y"
bx X"
bx W"
bx V"
bx U"
bx T"
bx S"
xR"
bx Q"
bx P"
bx O"
bx N"
bx M"
bx L"
bx K"
bx J"
b0xxxxxxxxxxxxxxxx C"
bx B"
bx A"
bx @"
bx ?"
bx >"
bx ="
b0xxxxxxxxxxxxxxx <"
bx ;"
bx :"
bx 9"
bx 8"
bx 7"
bx 6"
bx 5"
bx 4"
bx 3"
bx 2"
bx 1"
bx 0"
bx /"
bx ."
bx -"
bx ,"
x+"
bx *"
bx )"
bx ("
bx '"
bx &"
bx %"
bx $"
bx #"
x""
x!"
x~
x}
bx |
xg
xf
xe
xd
xc
bx b
xa
x`
bx _
bx ^
bx ]
x\
bx [
bx Z
bx Y
xX
bx W
xV
xU
xT
b0 S
0R
bx Q
bx P
bx O
bx N
bx M
bx L
0K
0J
b0 I
b0 H
b0 G
0F
0E
0D
xC
xB
xA
b0 @
0?
bx >
0=
b0 <
b0 ;
0:
09
b0 8
07
06
x&
bx %
x$
x#
bx "
0!
$end
#5000
b111111111 A"
b111111111 @"
b111111111 B"
b111111111 <"
b0 8"
b110111101011110 5"
b0 7"
b1001001000110111 4"
b0 9"
b0 6"
b0 "
b0 W
b0 ^"
b0 g"
b0 f"
b0 C"
0\"
0A
0C
0#
0y"
0~"
0%#
b0 Y
b0 Z"
b0 Z
b0 X"
b0 [
b0 V"
b1010101 >"
b10101010 ="
b0 ?"
1&
b0 0"
b0 S"
b0 x"
b0 T"
b0 }"
b0 U"
b0 $#
b0 ["
b0 Y"
b0 W"
b1111111111 P"
b1111111111 1"
1e"
b0 ]"
0a
0\
0c
0g
0X
0T
0f
0e
0d
0`
0V
0B
b0 '"
0c"
0d"
0{"
b0 z"
0|"
0a"
0b"
0"#
b0 !#
0##
0_"
0`"
0'#
b0 &#
0(#
b0 q"
0U
0R"
0p"
0m"
0l"
0k"
0j"
0i"
0h"
b0 b
b0 Q"
b0 o"
b0 w"
b0 v"
b0 u"
b0 t"
b0 s"
b0 r"
b0xxxxxxxxxxxxxxx ]
b0xxxxxxxxxxxxxxx L"
b0xxxxxxxxxxxxxxx ^
b0xxxxxxxxxxxxxxx K"
b0xxxxxxxxxxxxxxx _
b0xxxxxxxxxxxxxxx J"
b1010101010101010101010101010101 ;"
b10101010101010101010101010101010 :"
b0 3"
b0 M"
0$
b0 )"
b0 ("
b0 *"
b0 2"
b0 $"
b0 Q
b0 P
b0 O
b0 N
b0 M
b0 L
b1111111111 |
b0 &"
b0 #"
0~
0!"
0""
0}
0+"
b0 %
b0 %"
b110 ,"
17
#10000
07
#15000
b111111111 ]
b111111111 L"
b111111111 ^
b111111111 K"
b111111111 _
b111111111 J"
b110 ,"
17
#20000
07
#25000
b110 ,"
17
#30000
07
#35000
b110 ,"
17
#40000
07
#45000
1?
17
#50000
07
#55000
17
#60000
07
#65000
b111100 )#
17
#70000
b10110001110111000000000000000001 '"
1J
b1111 S
1F
1=
19
b111100 8
b111100 G
1:
07
#75000
0J
0F
0&
1R
b10110001110111000000000000000001 %
b10110001110111000000000000000001 %"
1$
17
#80000
0:
07
#85000
1&
0R
0$
b0 ,#
b1000 +#
b10110001110111000000000000000001 >
b10110001110111000000000000000001 *#
17
#90000
b0 '"
1K
b10 S
1F
b1111 <
b1111 I
09
b1000 8
b1000 G
1:
07
#95000
0K
0F
0&
1R
1$
b0 /"
b0 ."
b1111 -"
17
#100000
0:
07
#105000
1&
0R
0$
b11000111 ,#
b1100 +#
17
#110000
b1111111111 '"
1K
b11 S
1F
b11000111 ;
b11000111 H
b1100 8
b1100 G
1:
07
#115000
b1100011 B"
b1100011 A"
b1100011 @"
b1100011 <"
0K
0F
b11000111 '"
b11000111 P"
b11000111 1"
0&
1R
b11000111 |
1$
b1111111111 /"
b11000111 ."
17
#120000
0:
07
#125000
1&
0R
b1100011 ]
b1100011 L"
b1100011 ^
b1100011 K"
b1100011 _
b1100011 J"
0$
b10100000101000001010 ,#
b101000 +#
17
#130000
b0 '"
1K
b1010 S
1F
b10100000101000001010 ;
b10100000101000001010 H
b101000 8
b101000 G
1:
07
#135000
0K
0F
b10100000101000001010 '"
b1010 S"
b1010 x"
b1010 T"
b1010 }"
b1010 U"
b1010 $#
0&
1R
b10100000101000001010 $"
1$
b0 /"
b10100000101000001010 ."
17
#140000
0:
07
#145000
1&
0R
0$
b111100 ,#
b10000 +#
17
#150000
b0 '"
1K
b100 S
1F
b111100 ;
b111100 H
b10000 8
b10000 G
1:
07
#155000
0K
b111100 [
b111100 V"
0F
b111100 '"
0&
1R
b111100 L
1$
b111100 ."
17
#160000
0:
07
#165000
b1 f"
1y"
1&
0R
1m"
b111100 r"
0$
b1100100 ,#
b11000 +#
17
#170000
b0 '"
1K
b110 S
1F
b1100100 ;
b1100100 H
b11000 8
b11000 G
1:
07
#175000
0K
b1100100 Z
b1100100 X"
0F
b1100100 '"
0&
1R
0y"
b1100100 N
1$
1|"
b1100100 ."
17
#180000
0:
07
#185000
b101 f"
1~"
1&
0R
1k"
b1100100 t"
0$
b10001100 ,#
b100000 +#
17
#190000
b0 '"
1K
b1000 S
1F
b10001100 ;
b10001100 H
b100000 8
b100000 G
1:
07
#195000
0K
b10001100 Y
b10001100 Z"
0F
b10001100 '"
0&
1R
0~"
b10001100 P
1$
1##
b10001100 ."
17
#200000
0:
07
#205000
b10101 f"
1%#
1&
0R
1i"
b10001100 v"
0$
b10011 ,#
b0 +#
17
#210000
b0 '"
1K
b0 S
1F
b10011 ;
b10011 H
b0 8
b0 G
1:
07
#215000
0K
1\"
0F
b10011 '"
1a
1\
1X
0&
1R
0%#
b10011 #"
1$
1(#
b10011 ."
17
#220000
0:
07
#225000
b10101 "
b10101 W
b10101 ^"
b10101 g"
1&
0R
1d"
1b"
1`"
b1 b
b1 Q"
b1 o"
0$
17
#230000
07
#235000
b10 b
b10 Q"
b10 o"
17
#240000
07
#245000
b11 b
b11 Q"
b11 o"
17
#250000
07
#255000
b100 b
b100 Q"
b100 o"
17
#260000
07
#265000
b101 b
b101 Q"
b101 o"
17
#270000
07
#275000
b110 b
b110 Q"
b110 o"
17
#280000
07
#285000
b111 b
b111 Q"
b111 o"
17
#290000
07
#295000
b1000 b
b1000 Q"
b1000 o"
17
#300000
07
#305000
b1001 b
b1001 Q"
b1001 o"
17
#310000
07
#315000
b1010 b
b1010 Q"
b1010 o"
17
#320000
07
#325000
b1011 b
b1011 Q"
b1011 o"
17
#330000
07
#335000
b1100 b
b1100 Q"
b1100 o"
17
#340000
07
#345000
b1101 b
b1101 Q"
b1101 o"
17
#350000
07
#355000
b1110 b
b1110 Q"
b1110 o"
17
#360000
07
#365000
b1111 b
b1111 Q"
b1111 o"
17
#370000
07
#375000
b10000 b
b10000 Q"
b10000 o"
17
#380000
07
#385000
b10001 b
b10001 Q"
b10001 o"
17
#390000
07
#395000
b10010 b
b10010 Q"
b10010 o"
17
#400000
07
#405000
b10011 b
b10011 Q"
b10011 o"
17
#410000
07
#415000
b10100 b
b10100 Q"
b10100 o"
17
#420000
07
#425000
b10101 b
b10101 Q"
b10101 o"
17
#430000
07
#435000
b10110 b
b10110 Q"
b10110 o"
17
#440000
07
#445000
b10111 b
b10111 Q"
b10111 o"
17
#450000
07
#455000
b11000 b
b11000 Q"
b11000 o"
17
#460000
07
#465000
b11001 b
b11001 Q"
b11001 o"
17
#470000
07
#475000
b11010 b
b11010 Q"
b11010 o"
17
#480000
07
#485000
b11011 b
b11011 Q"
b11011 o"
17
#490000
07
#495000
b11100 b
b11100 Q"
b11100 o"
17
#500000
07
#505000
b11101 b
b11101 Q"
b11101 o"
17
#510000
07
#515000
b11110 b
b11110 Q"
b11110 o"
17
#520000
07
#525000
b11111 b
b11111 Q"
b11111 o"
17
#530000
07
#535000
b100000 b
b100000 Q"
b100000 o"
17
#540000
07
#545000
b100001 b
b100001 Q"
b100001 o"
17
#550000
07
#555000
b100010 b
b100010 Q"
b100010 o"
17
#560000
07
#565000
b100011 b
b100011 Q"
b100011 o"
17
#570000
07
#575000
b100100 b
b100100 Q"
b100100 o"
17
#580000
07
#585000
b100101 b
b100101 Q"
b100101 o"
17
#590000
07
#595000
b100110 b
b100110 Q"
b100110 o"
17
#600000
07
#605000
b100111 b
b100111 Q"
b100111 o"
17
#610000
07
#615000
b101000 b
b101000 Q"
b101000 o"
17
#620000
07
#625000
b101001 b
b101001 Q"
b101001 o"
17
#630000
07
#635000
b101010 b
b101010 Q"
b101010 o"
17
#640000
07
#645000
b101011 b
b101011 Q"
b101011 o"
17
#650000
07
#655000
b101100 b
b101100 Q"
b101100 o"
17
#660000
07
#665000
b101101 b
b101101 Q"
b101101 o"
17
#670000
07
#675000
b101110 b
b101110 Q"
b101110 o"
17
#680000
07
#685000
b101111 b
b101111 Q"
b101111 o"
17
#690000
07
#695000
b110000 b
b110000 Q"
b110000 o"
17
#700000
07
#705000
b110001 b
b110001 Q"
b110001 o"
17
#710000
07
#715000
b110010 b
b110010 Q"
b110010 o"
17
#720000
07
#725000
b110011 b
b110011 Q"
b110011 o"
17
#730000
07
#735000
b110100 b
b110100 Q"
b110100 o"
17
#740000
07
#745000
b110101 b
b110101 Q"
b110101 o"
17
#750000
07
#755000
b110110 b
b110110 Q"
b110110 o"
17
#760000
07
#765000
b110111 b
b110111 Q"
b110111 o"
17
#770000
07
#775000
b111000 b
b111000 Q"
b111000 o"
17
#780000
07
#785000
b111001 b
b111001 Q"
b111001 o"
17
#790000
07
#795000
b111010 b
b111010 Q"
b111010 o"
17
#800000
07
#805000
b111011 b
b111011 Q"
b111011 o"
17
#810000
07
#815000
b10100 f"
1y"
0m"
b111100 b
b111100 Q"
b111100 o"
17
#820000
07
#825000
b10100 "
b10100 W
b10100 ^"
b10100 g"
0y"
b1010 z"
1{"
0d"
0|"
b111101 b
b111101 Q"
b111101 o"
17
#830000
07
#835000
b111110 b
b111110 Q"
b111110 o"
b1001 z"
17
#840000
07
#845000
b1000 z"
b111111 b
b111111 Q"
b111111 o"
17
#850000
07
#855000
b1000000 b
b1000000 Q"
b1000000 o"
b111 z"
17
#860000
07
#865000
b110 z"
b1000001 b
b1000001 Q"
b1000001 o"
17
#870000
07
#875000
b1000010 b
b1000010 Q"
b1000010 o"
b101 z"
17
#880000
07
#885000
b100 z"
b1000011 b
b1000011 Q"
b1000011 o"
17
#890000
07
#895000
b1000100 b
b1000100 Q"
b1000100 o"
b11 z"
17
#900000
07
#905000
b10 z"
b1000101 b
b1000101 Q"
b1000101 o"
17
#910000
07
#915000
b1000110 b
b1000110 Q"
b1000110 o"
b1 z"
17
#920000
07
#925000
b0 z"
0{"
b1000111 b
b1000111 Q"
b1000111 o"
17
#930000
07
#935000
b10110 "
b10110 W
b10110 ^"
b10110 g"
b1001000 b
b1001000 Q"
b1001000 o"
1c"
17
#940000
07
#945000
b1001001 b
b1001001 Q"
b1001001 o"
17
#950000
07
#955000
b1001010 b
b1001010 Q"
b1001010 o"
17
#960000
07
#965000
b1001011 b
b1001011 Q"
b1001011 o"
17
#970000
07
#975000
b1001100 b
b1001100 Q"
b1001100 o"
17
#980000
07
#985000
b1001101 b
b1001101 Q"
b1001101 o"
17
#990000
07
#995000
b1001110 b
b1001110 Q"
b1001110 o"
17
#1000000
07
#1005000
b1001111 b
b1001111 Q"
b1001111 o"
17
#1010000
07
#1015000
b1010000 b
b1010000 Q"
b1010000 o"
17
#1020000
07
#1025000
b1010001 b
b1010001 Q"
b1010001 o"
17
#1030000
07
#1035000
b1010010 b
b1010010 Q"
b1010010 o"
17
#1040000
07
#1045000
b1010011 b
b1010011 Q"
b1010011 o"
17
#1050000
07
#1055000
b1010100 b
b1010100 Q"
b1010100 o"
17
#1060000
07
#1065000
b1010101 b
b1010101 Q"
b1010101 o"
17
#1070000
07
#1075000
b1010110 b
b1010110 Q"
b1010110 o"
17
#1080000
07
#1085000
b1010111 b
b1010111 Q"
b1010111 o"
17
#1090000
07
#1095000
b1011000 b
b1011000 Q"
b1011000 o"
17
#1100000
07
#1105000
b1011001 b
b1011001 Q"
b1011001 o"
17
#1110000
07
#1115000
b1011010 b
b1011010 Q"
b1011010 o"
17
#1120000
07
#1125000
b1011011 b
b1011011 Q"
b1011011 o"
17
#1130000
07
#1135000
b1011100 b
b1011100 Q"
b1011100 o"
17
#1140000
07
#1145000
b1011101 b
b1011101 Q"
b1011101 o"
17
#1150000
07
#1155000
b1011110 b
b1011110 Q"
b1011110 o"
17
#1160000
07
#1165000
b1011111 b
b1011111 Q"
b1011111 o"
17
#1170000
07
#1175000
b1100000 b
b1100000 Q"
b1100000 o"
17
#1180000
07
#1185000
b1100001 b
b1100001 Q"
b1100001 o"
17
#1190000
07
#1195000
b1100010 b
b1100010 Q"
b1100010 o"
17
#1200000
07
#1205000
b1100011 b
b1100011 Q"
b1100011 o"
17
#1210000
07
#1215000
b10000 f"
1~"
0k"
b1100100 b
b1100100 Q"
b1100100 o"
17
#1220000
07
#1225000
b10010 "
b10010 W
b10010 ^"
b10010 g"
0~"
b1010 !#
1"#
0b"
0##
b1100101 b
b1100101 Q"
b1100101 o"
17
#1230000
07
#1235000
b1100110 b
b1100110 Q"
b1100110 o"
b1001 !#
17
#1240000
07
#1245000
b1000 !#
b1100111 b
b1100111 Q"
b1100111 o"
17
#1250000
07
#1255000
b1101000 b
b1101000 Q"
b1101000 o"
b111 !#
17
#1260000
07
#1265000
b110 !#
b1101001 b
b1101001 Q"
b1101001 o"
17
#1270000
07
#1275000
b1101010 b
b1101010 Q"
b1101010 o"
b101 !#
17
#1280000
07
#1285000
b100 !#
b1101011 b
b1101011 Q"
b1101011 o"
17
#1290000
07
#1295000
b1101100 b
b1101100 Q"
b1101100 o"
b11 !#
17
#1300000
07
#1305000
b10 !#
b1101101 b
b1101101 Q"
b1101101 o"
17
#1310000
07
#1315000
b1101110 b
b1101110 Q"
b1101110 o"
b1 !#
17
#1320000
07
#1325000
b0 !#
0"#
b1101111 b
b1101111 Q"
b1101111 o"
17
#1330000
07
#1335000
b11010 "
b11010 W
b11010 ^"
b11010 g"
b1110000 b
b1110000 Q"
b1110000 o"
1a"
17
#1340000
07
#1345000
b1110001 b
b1110001 Q"
b1110001 o"
17
#1350000
07
#1355000
b1110010 b
b1110010 Q"
b1110010 o"
17
#1360000
07
#1365000
b1110011 b
b1110011 Q"
b1110011 o"
17
#1370000
07
#1375000
b1110100 b
b1110100 Q"
b1110100 o"
17
#1380000
07
#1385000
b1110101 b
b1110101 Q"
b1110101 o"
17
#1390000
07
#1395000
b1110110 b
b1110110 Q"
b1110110 o"
17
#1400000
07
#1405000
b1110111 b
b1110111 Q"
b1110111 o"
17
#1410000
07
#1415000
b1111000 b
b1111000 Q"
b1111000 o"
17
#1420000
07
#1425000
b1111001 b
b1111001 Q"
b1111001 o"
17
#1430000
07
#1435000
b1111010 b
b1111010 Q"
b1111010 o"
17
#1440000
07
#1445000
b1111011 b
b1111011 Q"
b1111011 o"
17
#1450000
07
#1455000
b1111100 b
b1111100 Q"
b1111100 o"
17
#1460000
07
#1465000
b1111101 b
b1111101 Q"
b1111101 o"
17
#1470000
07
#1475000
b1111110 b
b1111110 Q"
b1111110 o"
17
#1480000
07
#1485000
b1111111 b
b1111111 Q"
b1111111 o"
17
#1490000
07
#1495000
b10000000 b
b10000000 Q"
b10000000 o"
17
#1500000
07
#1505000
b10000001 b
b10000001 Q"
b10000001 o"
17
#1510000
07
#1515000
b10000010 b
b10000010 Q"
b10000010 o"
17
#1520000
07
#1525000
b10000011 b
b10000011 Q"
b10000011 o"
17
#1530000
07
#1535000
b10000100 b
b10000100 Q"
b10000100 o"
17
#1540000
07
#1545000
b10000101 b
b10000101 Q"
b10000101 o"
17
#1550000
07
#1555000
b10000110 b
b10000110 Q"
b10000110 o"
17
#1560000
07
#1565000
b10000111 b
b10000111 Q"
b10000111 o"
17
#1570000
07
#1575000
b10001000 b
b10001000 Q"
b10001000 o"
17
#1580000
07
#1585000
b10001001 b
b10001001 Q"
b10001001 o"
17
#1590000
07
#1595000
b10001010 b
b10001010 Q"
b10001010 o"
17
#1600000
07
#1605000
b10001011 b
b10001011 Q"
b10001011 o"
17
#1610000
07
#1615000
b0 f"
1%#
0i"
b10001100 b
b10001100 Q"
b10001100 o"
17
#1620000
07
#1625000
b1010 "
b1010 W
b1010 ^"
b1010 g"
0%#
b1010 &#
1'#
0`"
0(#
b10001101 b
b10001101 Q"
b10001101 o"
17
#1630000
07
#1635000
b10001110 b
b10001110 Q"
b10001110 o"
b1001 &#
17
#1640000
07
#1645000
b1000 &#
b10001111 b
b10001111 Q"
b10001111 o"
17
#1650000
07
#1655000
b10010000 b
b10010000 Q"
b10010000 o"
b111 &#
17
#1660000
07
#1665000
b110 &#
b10010001 b
b10010001 Q"
b10010001 o"
17
#1670000
07
#1675000
b10010010 b
b10010010 Q"
b10010010 o"
b101 &#
17
#1680000
07
#1685000
b100 &#
b10010011 b
b10010011 Q"
b10010011 o"
17
#1690000
07
#1695000
b10010100 b
b10010100 Q"
b10010100 o"
b11 &#
17
#1700000
07
#1705000
b10 &#
b10010101 b
b10010101 Q"
b10010101 o"
17
#1710000
07
#1715000
b10010110 b
b10010110 Q"
b10010110 o"
b1 &#
17
#1720000
07
#1725000
b0 &#
0'#
b10010111 b
b10010111 Q"
b10010111 o"
17
#1730000
07
#1735000
b101010 "
b101010 W
b101010 ^"
b101010 g"
b10011000 b
b10011000 Q"
b10011000 o"
1_"
17
#1740000
07
#1745000
b10011001 b
b10011001 Q"
b10011001 o"
17
#1750000
07
#1755000
b10011010 b
b10011010 Q"
b10011010 o"
17
#1760000
07
#1765000
b10011011 b
b10011011 Q"
b10011011 o"
17
#1770000
07
#1775000
b10011100 b
b10011100 Q"
b10011100 o"
17
#1780000
07
#1785000
b10011101 b
b10011101 Q"
b10011101 o"
17
#1790000
07
#1795000
b10011110 b
b10011110 Q"
b10011110 o"
17
#1800000
07
#1805000
b10011111 b
b10011111 Q"
b10011111 o"
17
#1810000
07
#1815000
b10100000 b
b10100000 Q"
b10100000 o"
17
#1820000
07
#1825000
b10100001 b
b10100001 Q"
b10100001 o"
17
#1830000
07
#1835000
b10100010 b
b10100010 Q"
b10100010 o"
17
#1840000
07
#1845000
b10100011 b
b10100011 Q"
b10100011 o"
17
#1850000
07
#1855000
b10100100 b
b10100100 Q"
b10100100 o"
17
#1860000
07
#1865000
b10100101 b
b10100101 Q"
b10100101 o"
17
#1870000
07
#1875000
b10100110 b
b10100110 Q"
b10100110 o"
17
#1880000
07
#1885000
b10100111 b
b10100111 Q"
b10100111 o"
17
#1890000
07
#1895000
b10101000 b
b10101000 Q"
b10101000 o"
17
#1900000
07
#1905000
b10101001 b
b10101001 Q"
b10101001 o"
17
#1910000
07
#1915000
b10101010 b
b10101010 Q"
b10101010 o"
17
#1920000
07
#1925000
b10101011 b
b10101011 Q"
b10101011 o"
17
#1930000
07
#1935000
b10101100 b
b10101100 Q"
b10101100 o"
17
#1940000
07
#1945000
b10101101 b
b10101101 Q"
b10101101 o"
17
#1950000
07
#1955000
b10101110 b
b10101110 Q"
b10101110 o"
17
#1960000
07
#1965000
b10101111 b
b10101111 Q"
b10101111 o"
17
#1970000
07
#1975000
b10110000 b
b10110000 Q"
b10110000 o"
17
#1980000
07
#1985000
b10110001 b
b10110001 Q"
b10110001 o"
17
#1990000
07
#1995000
b10110010 b
b10110010 Q"
b10110010 o"
17
#2000000
07
